{
  "project_info": {
    "project_number": "849885792358",
    "firebase_url": "https://dailyhotelneedsandroid.firebaseio.com",
    "project_id": "dailyhotelneedsandroid",
    "storage_bucket": "dailyhotelneedsandroid.appspot.com"
  },
  "client": [
    {
      "client_info": {
        "mobilesdk_app_id": "1:849885792358:android:5b9d2b877ab32095",
        "android_client_info": {
          "package_name": "com.daily.hotel.needs.dailyhotelneeds"
        }
      },
      "oauth_client": [
        {
          "client_id": "849885792358-n7q9ok5unlp1d1qeirkrougj4a8c1teg.apps.googleusercontent.com",
          "client_type": 3
        }
      ],
      "api_key": [
        {
          "current_key": "AIzaSyDqG-RteXIPZgTlU63t-qvQ8998iLWMhGg"
        }
      ],
      "services": {
        "analytics_service": {
          "status": 1
        },
        "appinvite_service": {
          "status": 1,
          "other_platform_oauth_client": []
        },
        "ads_service": {
          "status": 2
        }
      }
    },
    {
      "client_info": {
        "mobilesdk_app_id": "1:849885792358:android:a243d786e6b51871",
        "android_client_info": {
          "package_name": "com.daily.hotel.needs.hoteldailyneeds"
        }
      },
      "oauth_client": [
        {
          "client_id": "849885792358-95a5tkilii131lmffjd4t3f8fi4k4doo.apps.googleusercontent.com",
          "client_type": 1,
          "android_info": {
            "package_name": "com.daily.hotel.needs.hoteldailyneeds",
            "certificate_hash": "ca0fd464a611408fa45f2d39e240211e82086c1a"
          }
        },
        {
          "client_id": "849885792358-n7q9ok5unlp1d1qeirkrougj4a8c1teg.apps.googleusercontent.com",
          "client_type": 3
        }
      ],
      "api_key": [
        {
          "current_key": "AIzaSyDqG-RteXIPZgTlU63t-qvQ8998iLWMhGg"
        }
      ],
      "services": {
        "analytics_service": {
          "status": 1
        },
        "appinvite_service": {
          "status": 2,
          "other_platform_oauth_client": [
            {
              "client_id": "849885792358-n7q9ok5unlp1d1qeirkrougj4a8c1teg.apps.googleusercontent.com",
              "client_type": 3
            }
          ]
        },
        "ads_service": {
          "status": 2
        }
      }
    }
  ],
  "configuration_version": "1"
}